…
## Source

Anonymous

## Examples

``` r
anthro.04
#> # A tibble: 3,002 × 8
#>    province   cluster   sex   age  muac oedema   mfaz flag_mfaz
#>    <chr>        <int> <dbl> <int> <dbl> <chr>   <dbl>     <dbl>
#>  1 Province 1     298     2    24   136 n      -1.12          0
#>  2 Province 1     298     2    30   116 n      -3.44          0
#>  3 Province 1     298     2     7   140 n       0.084         0
#>  4 Province 1     298     2    18   144 n      -0.068         0
#>  5 Province 1     298     2    10   125 n      -1.48          0
#>  6 Province 1     298     2    11   125 n      -1.52          0
#>  7 Province 1     298     2    30   136 n      -1.46          0
#>  8 Province 1     298     2    24   133 n      -1.40          0
#>  9 Province 1     298     2    10   122 n      -1.78          0
#> 10 Province 1     298     2    24   142 n      -0.579         0
#> # ℹ 2,992 more rows
…
