…
### Then apply the function to wrangle MUAC data ----
mw_wrangle_muac(
  df = w,
  sex = sex,
  age = age,
  muac = muac,
  .recode_sex = TRUE,
  .recode_muac = TRUE,
  .to = "cm",
  .decimals = 3
)
#> ================================================================================
#> # A tibble: 2,267 × 15
#>    province strata cluster   sex   age weight height oedema  muac wtfactor
#>    <chr>    <chr>    <int> <dbl> <dbl>  <dbl>  <dbl> <chr>  <dbl>    <dbl>
#>  1 Zambezia Rural      391     2  6.01    8.2   68   n       15.2     825.
#>  2 Zambezia Rural      404     2  6.01    7.1   65.1 n       13.9     287.
#>  3 Zambezia Rural      399     2  6.11    7.6   64.1 n       15.5     130.
#>  4 Zambezia Urban      430     2  6.14    7.9   65.9 n       14.8    1277.
#>  5 Zambezia Urban      468     2  6.28    6.6   59.7 n       13.2     792.
#>  6 Zambezia Urban      517     2  6.34    6     61.8 n       12.9     480.
#>  7 Zambezia Urban      461     2  6.34    6.5   64.4 n       12.3     977.
#>  8 Zambezia Rural      382     2  6.41    6.5   63.4 n       12.6     165.
#>  9 Zambezia Urban      502     2  6.41    7.5   66   n       14.2    1083.
#> 10 Zambezia Urban      500     2  6.41    6.8   64.1 n       13.5     972.
#> # ℹ 2,257 more rows
#> # ℹ 5 more variables: wfhz <dbl>, flag_wfhz <dbl>, mfaz <dbl>, flag_mfaz <dbl>,
#> #   age_days <dbl>

## When age is not available ----
mw_wrangle_muac(
  df = anthro.02,
  sex = sex,
  age = NULL,
  muac = muac,
  .recode_sex = TRUE,
  .recode_muac = TRUE,
  .to = "cm",
  .decimals = 3
)
#> # A tibble: 2,267 × 15
#>    province strata cluster   sex   age weight height oedema  muac wtfactor
#>    <chr>    <chr>    <int> <dbl> <dbl>  <dbl>  <dbl> <chr>  <dbl>    <dbl>
#>  1 Zambezia Rural      391     2  6.01    8.2   68   n        152     825.
#>  2 Zambezia Rural      404     2  6.01    7.1   65.1 n        139     287.
#>  3 Zambezia Rural      399     2  6.11    7.6   64.1 n        155     130.
#>  4 Zambezia Urban      430     2  6.14    7.9   65.9 n        148    1277.
#>  5 Zambezia Urban      468     2  6.28    6.6   59.7 n        132     792.
#>  6 Zambezia Urban      517     2  6.34    6     61.8 n        129     480.
#>  7 Zambezia Urban      461     2  6.34    6.5   64.4 n        123     977.
#>  8 Zambezia Rural      382     2  6.41    6.5   63.4 n        126     165.
#>  9 Zambezia Urban      502     2  6.41    7.5   66   n        142    1083.
#> 10 Zambezia Urban      500     2  6.41    6.8   64.1 n        135     972.
#> # ℹ 2,257 more rows
#> # ℹ 5 more variables: wfhz <dbl>, flag_wfhz <dbl>, mfaz <dbl>, flag_mfaz <dbl>,
#> #   flag_muac <dbl>
```
